module sigs.k8s.io/cluster-api/hack/tools

go 1.17

require (
	github.com/golangci/golangci-lint v1.37.1
	github.com/jteeuwen/go-bindata v3.0.7+incompatible
	go.mongodb.org/mongo-driver v1.5.1 // indirect
	k8s.io/code-generator v0.23.0
	sigs.k8s.io/controller-tools v0.7.0
	sigs.k8s.io/kustomize/kustomize/v3 v3.10.0
	sigs.k8s.io/testing_frameworks v0.1.1
)

require github.com/golang/mock v1.5.0

require (
	4d63.com/gochecknoglobals v0.0.0-20201008074935-acfc0b28355a // indirect
	github.com/BurntSushi/toml v0.3.1 // indirect
	github.com/Djarvur/go-err113 v0.0.0-20200511133814-5174e21577d5 // indirect
	github.com/Masterminds/semver v1.5.0 // indirect
	github.com/OpenPeeDeeP/depguard v1.0.1 // indirect
	github.com/PuerkitoBio/purell v1.1.1 // indirect
	github.com/PuerkitoBio/urlesc v0.0.0-20170810143723-de5bf2ad4578 // indirect
	github.com/alexkohler/prealloc v0.0.0-20210204145425-77a5b5dd9799 // indirect
	github.com/asaskevich/govalidator v0.0.0-20190424111038-f61b66f89f4a // indirect
	github.com/ashanbrown/forbidigo v1.1.0 // indirect
	github.com/ashanbrown/makezero v0.0.0-20201205152432-7b7cdbb3025a // indirect
	github.com/bgentry/go-netrc v0.0.0-20140422174119-9fd32a8b3d3d // indirect
	github.com/bkielbasa/cyclop v1.2.0 // indirect
	github.com/bombsimon/wsl/v3 v3.1.0 // indirect
	github.com/charithe/durationcheck v0.0.4 // indirect
	github.com/daixiang0/gci v0.2.8 // indirect
	github.com/davecgh/go-spew v1.1.1 // indirect
	github.com/denis-tingajkin/go-header v0.4.2 // indirect
	github.com/esimonov/ifshort v1.0.1 // indirect
	github.com/evanphx/json-patch v4.11.0+incompatible // indirect
	github.com/fatih/color v1.12.0 // indirect
	github.com/fatih/structtag v1.2.0 // indirect
	github.com/fsnotify/fsnotify v1.4.9 // indirect
	github.com/fzipp/gocyclo v0.3.1 // indirect
	github.com/go-critic/go-critic v0.5.4 // indirect
	github.com/go-errors/errors v1.0.1 // indirect
	github.com/go-logr/logr v1.2.0 // indirect
	github.com/go-openapi/analysis v0.19.5 // indirect
	github.com/go-openapi/errors v0.19.2 // indirect
	github.com/go-openapi/jsonpointer v0.19.5 // indirect
	github.com/go-openapi/jsonreference v0.19.5 // indirect
	github.com/go-openapi/loads v0.19.4 // indirect
	github.com/go-openapi/runtime v0.19.4 // indirect
	github.com/go-openapi/spec v0.19.5 // indirect
	github.com/go-openapi/strfmt v0.19.5 // indirect
	github.com/go-openapi/swag v0.19.14 // indirect
	github.com/go-openapi/validate v0.19.8 // indirect
	github.com/go-stack/stack v1.8.0 // indirect
	github.com/go-toolsmith/astcast v1.0.0 // indirect
	github.com/go-toolsmith/astcopy v1.0.0 // indirect
	github.com/go-toolsmith/astequal v1.0.0 // indirect
	github.com/go-toolsmith/astfmt v1.0.0 // indirect
	github.com/go-toolsmith/astp v1.0.0 // indirect
	github.com/go-toolsmith/strparse v1.0.0 // indirect
	github.com/go-toolsmith/typep v1.0.2 // indirect
	github.com/go-xmlfmt/xmlfmt v0.0.0-20191208150333-d5b6f63a941b // indirect
	github.com/gobuffalo/flect v0.2.3 // indirect
	github.com/gobwas/glob v0.2.3 // indirect
	github.com/gofrs/flock v0.8.0 // indirect
	github.com/gogo/protobuf v1.3.2 // indirect
	github.com/golangci/check v0.0.0-20180506172741-cfe4005ccda2 // indirect
	github.com/golangci/dupl v0.0.0-20180902072040-3e9179ac440a // indirect
	github.com/golangci/errcheck v0.0.0-20181223084120-ef45e06d44b6 // indirect
	github.com/golangci/go-misc v0.0.0-20180628070357-927a3d87b613 // indirect
	github.com/golangci/gofmt v0.0.0-20190930125516-244bba706f1a // indirect
	github.com/golangci/ineffassign v0.0.0-20190609212857-42439a7714cc // indirect
	github.com/golangci/lint-1 v0.0.0-20191013205115-297bf364a8e0 // indirect
	github.com/golangci/maligned v0.0.0-20180506175553-b1d89398deca // indirect
	github.com/golangci/misspell v0.0.0-20180809174111-950f5d19e770 // indirect
	github.com/golangci/revgrep v0.0.0-20210208091834-cd28932614b5 // indirect
	github.com/golangci/unconvert v0.0.0-20180507085042-28b1c447d1f4 // indirect
	github.com/google/go-cmp v0.5.6 // indirect
	github.com/google/gofuzz v1.1.0 // indirect
	github.com/google/shlex v0.0.0-20191202100458-e7afc7fbc510 // indirect
	github.com/gostaticanalysis/analysisutil v0.4.1 // indirect
	github.com/gostaticanalysis/comment v1.4.1 // indirect
	github.com/hashicorp/errwrap v1.0.0 // indirect
	github.com/hashicorp/go-cleanhttp v0.5.1 // indirect
	github.com/hashicorp/go-multierror v1.1.0 // indirect
	github.com/hashicorp/go-safetemp v1.0.0 // indirect
	github.com/hashicorp/go-version v1.1.0 // indirect
	github.com/hashicorp/hcl v1.0.0 // indirect
	github.com/imdario/mergo v0.3.5 // indirect
	github.com/inconshreveable/mousetrap v1.0.0 // indirect
	github.com/jgautheron/goconst v0.0.0-20201117150253-ccae5bf973f3 // indirect
	github.com/jingyugao/rowserrcheck v0.0.0-20210130005344-c6a0c12dd98d // indirect
	github.com/jirfag/go-printf-func-name v0.0.0-20191110105641-45db9963cdd3 // indirect
	github.com/josharian/intern v1.0.0 // indirect
	github.com/json-iterator/go v1.1.12 // indirect
	github.com/kisielk/gotool v1.0.0 // indirect
	github.com/kulti/thelper v0.3.1 // indirect
	github.com/kunwardeep/paralleltest v1.0.2 // indirect
	github.com/kyoh86/exportloopref v0.1.8 // indirect
	github.com/magiconair/properties v1.8.5 // indirect
	github.com/mailru/easyjson v0.7.6 // indirect
	github.com/maratori/testpackage v1.0.1 // indirect
	github.com/matoous/godox v0.0.0-20190911065817-5d6d842e92eb // indirect
	github.com/mattn/go-colorable v0.1.8 // indirect
	github.com/mattn/go-isatty v0.0.12 // indirect
	github.com/mattn/go-runewidth v0.0.7 // indirect
	github.com/mbilski/exhaustivestruct v1.2.0 // indirect
	github.com/mgechev/dots v0.0.0-20190921121421-c36f7dcfbb81 // indirect
	github.com/mgechev/revive v1.0.3 // indirect
	github.com/mitchellh/go-homedir v1.1.0 // indirect
	github.com/mitchellh/go-testing-interface v1.0.0 // indirect
	github.com/mitchellh/mapstructure v1.4.1 // indirect
	github.com/modern-go/concurrent v0.0.0-20180306012644-bacd9c7ef1dd // indirect
	github.com/modern-go/reflect2 v1.0.2 // indirect
	github.com/monochromegane/go-gitignore v0.0.0-20200626010858-205db1a8cc00 // indirect
	github.com/moricho/tparallel v0.2.1 // indirect
	github.com/nakabonne/nestif v0.3.0 // indirect
	github.com/nbutton23/zxcvbn-go v0.0.0-20201221231540-e56b841a3c88 // indirect
	github.com/nishanths/exhaustive v0.1.0 // indirect
	github.com/nishanths/predeclared v0.2.1 // indirect
	github.com/olekukonko/tablewriter v0.0.4 // indirect
	github.com/onsi/gomega v1.14.0 // indirect
	github.com/pelletier/go-toml v1.9.3 // indirect
	github.com/phayes/checkstyle v0.0.0-20170904204023-bfd46e6a821d // indirect
	github.com/pkg/errors v0.9.1 // indirect
	github.com/pmezard/go-difflib v1.0.0 // indirect
	github.com/polyfloyd/go-errorlint v0.0.0-20201127212506-19bd8db6546f // indirect
	github.com/qri-io/starlib v0.4.2-0.20200213133954-ff2e8cd5ef8d // indirect
	github.com/quasilyte/go-ruleguard v0.3.0 // indirect
	github.com/quasilyte/regex/syntax v0.0.0-20200407221936-30656e2c4a95 // indirect
	github.com/ryancurrah/gomodguard v1.2.0 // indirect
	github.com/ryanrolds/sqlclosecheck v0.3.0 // indirect
	github.com/securego/gosec/v2 v2.6.1 // indirect
	github.com/shazow/go-diff v0.0.0-20160112020656-b6b7b6733b8c // indirect
	github.com/sirupsen/logrus v1.8.1 // indirect
	github.com/sonatard/noctx v0.0.1 // indirect
	github.com/sourcegraph/go-diff v0.6.1 // indirect
	github.com/spf13/afero v1.6.0 // indirect
	github.com/spf13/cast v1.3.1 // indirect
	github.com/spf13/cobra v1.2.1 // indirect
	github.com/spf13/jwalterweatherman v1.1.0 // indirect
	github.com/spf13/pflag v1.0.5 // indirect
	github.com/spf13/viper v1.8.1 // indirect
	github.com/ssgreg/nlreturn/v2 v2.1.0 // indirect
	github.com/stretchr/objx v0.2.0 // indirect
	github.com/stretchr/testify v1.7.0 // indirect
	github.com/subosito/gotenv v1.2.0 // indirect
	github.com/tdakkota/asciicheck v0.0.0-20200416190851-d7f85be797a2 // indirect
	github.com/tetafro/godot v1.4.4 // indirect
	github.com/timakin/bodyclose v0.0.0-20190930140734-f7f2e9bca95e // indirect
	github.com/tomarrell/wrapcheck v0.0.0-20200807122107-df9e8bcb914d // indirect
	github.com/tommy-muehle/go-mnd/v2 v2.3.1 // indirect
	github.com/ulikunitz/xz v0.5.8 // indirect
	github.com/ultraware/funlen v0.0.3 // indirect
	github.com/ultraware/whitespace v0.0.4 // indirect
	github.com/uudashr/gocognit v1.0.1 // indirect
	github.com/xlab/treeprint v0.0.0-20181112141820-a009c3971eca // indirect
	github.com/yujunz/go-getter v1.5.1-lite.0.20201201013212-6d9c071adddf // indirect
	go.starlark.net v0.0.0-20200306205701-8dd3e2ee1dd5 // indirect
	golang.org/x/mod v0.4.2 // indirect
	golang.org/x/net v0.0.0-20210825183410-e898025ed96a // indirect
	golang.org/x/sys v0.0.0-20210831042530-f4d43177bf5e // indirect
	golang.org/x/text v0.3.7 // indirect
	golang.org/x/tools v0.1.6-0.20210820212750-d4cc65f0b2ff // indirect
	golang.org/x/xerrors v0.0.0-20200804184101-5ec99f83aff1 // indirect
	gopkg.in/inf.v0 v0.9.1 // indirect
	gopkg.in/ini.v1 v1.62.0 // indirect
	gopkg.in/yaml.v2 v2.4.0 // indirect
	gopkg.in/yaml.v3 v3.0.0-20210107192922-496545a6307b // indirect
	honnef.co/go/tools v0.0.1-2020.1.6 // indirect
	k8s.io/api v0.22.2 // indirect
	k8s.io/apiextensions-apiserver v0.22.2 // indirect
	k8s.io/apimachinery v0.22.2 // indirect
	k8s.io/gengo v0.0.0-20210813121822-485abfe95c7c // indirect
	k8s.io/klog/v2 v2.30.0 // indirect
	k8s.io/utils v0.0.0-20210819203725-bdf08cb9a70a // indirect
	mvdan.cc/gofumpt v0.1.0 // indirect
	mvdan.cc/interfacer v0.0.0-20180901003855-c20040233aed // indirect
	mvdan.cc/lint v0.0.0-20170908181259-adc824a0674b // indirect
	mvdan.cc/unparam v0.0.0-20200501210554-b37ab49443f7 // indirect
	sigs.k8s.io/kustomize/api v0.8.0 // indirect
	sigs.k8s.io/kustomize/cmd/config v0.9.1 // indirect
	sigs.k8s.io/kustomize/kyaml v0.10.9 // indirect
	sigs.k8s.io/structured-merge-diff/v4 v4.1.2 // indirect
	sigs.k8s.io/yaml v1.2.0 // indirect
)
